module second-hand

go 1.19

require (
	github.com/andybalholm/brotli v1.0.4 // indirect
	github.com/cloudinary/cloudinary-go v1.7.0 // indirect
	github.com/creasty/defaults v1.5.1 // indirect
	github.com/etgryphon/stringUp v0.0.0-20121020160746-31534ccd8cac // indirect
	github.com/go-playground/locales v0.14.0 // indirect
	github.com/go-playground/universal-translator v0.18.0 // indirect
	github.com/go-playground/validator/v10 v10.11.1 // indirect
	github.com/go-sql-driver/mysql v1.7.0 // indirect
	github.com/gofiber/fiber/v2 v2.41.0 // indirect
	github.com/golang-jwt/jwt/v4 v4.4.3 // indirect
	github.com/google/uuid v1.2.0 // indirect
	github.com/gorilla/schema v1.2.0 // indirect
	github.com/jackc/pgpassfile v1.0.0 // indirect
	github.com/jackc/pgservicefile v0.0.0-20221227161230-091c0ba34f0a // indirect
	github.com/jackc/pgx/v5 v5.2.0 // indirect
	github.com/jinzhu/inflection v1.0.0 // indirect
	github.com/jinzhu/now v1.1.5 // indirect
	github.com/joho/godotenv v1.4.0 // indirect
	github.com/klauspost/compress v1.15.9 // indirect
	github.com/leebenson/conform v1.2.2 // indirect
	github.com/leodido/go-urn v1.2.1 // indirect
	github.com/mattn/go-colorable v0.1.13 // indirect
	github.com/mattn/go-isatty v0.0.17 // indirect
	github.com/mattn/go-runewidth v0.0.14 // indirect
	github.com/rivo/uniseg v0.2.0 // indirect
	github.com/valyala/bytebufferpool v1.0.0 // indirect
	github.com/valyala/fasthttp v1.43.0 // indirect
	github.com/valyala/tcplisten v1.0.0 // indirect
	golang.org/x/crypto v0.5.0 // indirect
	golang.org/x/sys v0.4.0 // indirect
	golang.org/x/text v0.6.0 // indirect
	gorm.io/driver/mysql v1.4.5 // indirect
	gorm.io/driver/postgres v1.4.6 // indirect
	gorm.io/gorm v1.24.3 // indirect
)
